1000, 1000, 202.469
1000, 1000, 235.856
1000, 1000, 225.558
1000, 1000, 226.166
1000, 1000, 173.23
1000, 1000, 227.897
1000, 1000, 175.679
1000, 1000, 168.763
1000, 1000, 166.552
1000, 1000, 233.569
1000, 1000, 226.173
1000, 1000, 169.131
1000, 1000, 231.732
1000, 1000, 230.825
1000, 1000, 168.547
1000, 1000, 172.281
1000, 1000, 225.091
1000, 1000, 232.635
1000, 1000, 227.904
1000, 1000, 224.446
1000, 1000, 171.044
1000, 1000, 229.084
1000, 1000, 169.514
1000, 1000, 176.395
1000, 1000, 176.35
1000, 1000, 224.636
1000, 1000, 176.833
1000, 1000, 172.531
1000, 1000, 230.286
1000, 1000, 231.686
1000, 1000, 223.882
1000, 1000, 222.582
1000, 1000, 235.363
1000, 1000, 173.61
1000, 1000, 227.985
1000, 1000, 225.47
1000, 1000, 233.688
1000, 1000, 222.584
1000, 1000, 172.635
1000, 1000, 184.605
1000, 1000, 238.823
1000, 1000, 226.833
1000, 1000, 230.223
1000, 1000, 236.216
1000, 1000, 226.37
1000, 1000, 222.411
1000, 1000, 221.322
1000, 1000, 202.216
1000, 1000, 234.071
1000, 1000, 196.356
1000, 1000, 198.59
1000, 1000, 191.586
1000, 1000, 234.965
1000, 1000, 246.631
1000, 1000, 251.865
1000, 1000, 250.466
1000, 1000, 245.96
1000, 1000, 198.218
1000, 1000, 202.035
1000, 1000, 247.625
1000, 1000, 226.756
1000, 1000, 197.559
1000, 1000, 193.912
1000, 1000, 237.726
1000, 1000, 197.084
1000, 1000, 242.49
1000, 1000, 248.263
1000, 1000, 198.127
1000, 1000, 246.193
1000, 1000, 204.601
1000, 1000, 192.833
1000, 1000, 246.098
1000, 1000, 232.496
1000, 1000, 204.329
1000, 1000, 230.207
1000, 1000, 238.706
1000, 1000, 208.737
1000, 1000, 236.879
1000, 1000, 242.319
1000, 1000, 205.534
1000, 1000, 210.633
1000, 1000, 247.123
1000, 1000, 227.148
1000, 1000, 240.108
1000, 1000, 252.433
1000, 1000, 239.316
1000, 1000, 242.834
1000, 1000, 223.982
1000, 1000, 228.133
1000, 1000, 244.061
1000, 1000, 250.901
1000, 1000, 231.435
1000, 1000, 224.633
1000, 1000, 239.742
1000, 1000, 250.433
1000, 1000, 250.456
1000, 1000, 235.842
1000, 1000, 249.552
1000, 1000, 238.019
1000, 1000, 242.105
1000, 1000, 237.561
1000, 1000, 240.451
1000, 1000, 208.153
1000, 1000, 223.219
1000, 1000, 220.954
1000, 1000, 242.909
1000, 1000, 214.889
1000, 1000, 245.186
1000, 1000, 242.587
1000, 1000, 238.679
1000, 1000, 239.538
1000, 1000, 233.897
1000, 1000, 227.506
1000, 1000, 232.781
1000, 1000, 245.274
1000, 1000, 248.789
1000, 1000, 243.012
1000, 1000, 235.365
1000, 1000, 253.686
1000, 1000, 235.81
1000, 1000, 245.619
1000, 1000, 229.59
1000, 1000, 244.307
1000, 1000, 239.193
1000, 1000, 246.787
1000, 1000, 246.885
1000, 1000, 241.314
1000, 1000, 244.076
1000, 1000, 245.516
1000, 1000, 239.641
1000, 1000, 239.117
1000, 1000, 234.873
1000, 1000, 243.574
1000, 1000, 230.435
1000, 1000, 200.914
1000, 1000, 236.731
1000, 1000, 247.243
1000, 1000, 243.194
1000, 1000, 238.296
1000, 1000, 235.605
1000, 1000, 224.082
1000, 1000, 199.497
1000, 1000, 246.922
1000, 1000, 204.239
1000, 1000, 193.78
1000, 1000, 234.646
1000, 1000, 211.358
1000, 1000, 239.689
1000, 1000, 235.073
1000, 1000, 247.539
1000, 1000, 239.961
1000, 1000, 239.88
1000, 1000, 254.309
1000, 1000, 240.476
1000, 1000, 206.558
1000, 1000, 239.599
1000, 1000, 249.704
1000, 1000, 198.534
1000, 1000, 253.475
1000, 1000, 249.478
1000, 1000, 251.881
1000, 1000, 242.517
1000, 1000, 247.414
1000, 1000, 249.213
1000, 1000, 247.669
1000, 1000, 250.776
1000, 1000, 198.551
1000, 1000, 249.582
1000, 1000, 195.203
1000, 1000, 186.122
1000, 1000, 250.963
1000, 1000, 250.036
1000, 1000, 247.171
1000, 1000, 250.857
1000, 1000, 246.509
1000, 1000, 247.965
1000, 1000, 253.847
1000, 1000, 252.855
1000, 1000, 180.614
1000, 1000, 186.887
1000, 1000, 240.203
1000, 1000, 237.741
1000, 1000, 238.689
1000, 1000, 236.672
1000, 1000, 233.452
1000, 1000, 212.809
1000, 1000, 248.191
1000, 1000, 209.416
1000, 1000, 222.728
1000, 1000, 233.336
1000, 1000, 236.761
1000, 1000, 237.076
1000, 1000, 238.145
1000, 1000, 245.241
1000, 1000, 223.882
1000, 1000, 188.475
1000, 1000, 230.642
1000, 1000, 180.116
1000, 1000, 246.924
1000, 1000, 193.802
1000, 1000, 248.471
1000, 1000, 245.255
1000, 1000, 229.4
1000, 1000, 180.252
1000, 1000, 241.442
1000, 1000, 178.27
1000, 1000, 176.105
1000, 1000, 191.559
1000, 1000, 248.339
1000, 1000, 176.019
1000, 1000, 238.604
1000, 1000, 193.872
1000, 1000, 230.463
1000, 1000, 234.259
1000, 1000, 228.367
1000, 1000, 230.168
1000, 1000, 234.844
1000, 1000, 225.555
1000, 1000, 186.618
1000, 1000, 173.083
1000, 1000, 223.451
1000, 1000, 235.308
1000, 1000, 224.321
1000, 1000, 173.605
1000, 1000, 181.87
1000, 1000, 176.042
1000, 1000, 222.084
1000, 1000, 221.286
1000, 1000, 171.02
1000, 1000, 175.393
1000, 1000, 223.754
1000, 1000, 223.139
1000, 1000, 168.546
1000, 1000, 218.655
1000, 1000, 226.277
1000, 1000, 220.624
1000, 1000, 221.636
1000, 1000, 219.979
1000, 1000, 222.461
1000, 1000, 222.445
1000, 1000, 225.903
1000, 1000, 218.676
1000, 1000, 169.119
1000, 1000, 227.8
1000, 1000, 224.032
1000, 1000, 221.359
1000, 1000, 182.638
1000, 1000, 223.12
1000, 1000, 216.921
1000, 1000, 221.328
1000, 1000, 169.202
1000, 1000, 172.223
1000, 1000, 168.169
1000, 1000, 170.79
1000, 1000, 171.511
1000, 1000, 223.025
1000, 1000, 163.939
1000, 1000, 221.529
1000, 1000, 169.561
1000, 1000, 218.055
1000, 1000, 223.929
1000, 1000, 222.056
1000, 1000, 221.894
1000, 1000, 223.108
1000, 1000, 219.89
1000, 1000, 219.559
1000, 1000, 167.153
1000, 1000, 164.681
1000, 1000, 177.082
1000, 1000, 223.83
1000, 1000, 218.866
1000, 1000, 222.726
1000, 1000, 233.922
1000, 1000, 229.752
1000, 1000, 228.067
1000, 1000, 230.868
1000, 1000, 227.991
1000, 1000, 228.412
1000, 1000, 162.334
1000, 1000, 222.979
1000, 1000, 228.409
1000, 1000, 226.888
1000, 1000, 166.636
1000, 1000, 226.632
1000, 1000, 228.076
1000, 1000, 226.672
1000, 1000, 224.56
1000, 1000, 226.634
1000, 1000, 227.029
1000, 1000, 168.481
1000, 1000, 225.832
1000, 1000, 228.677
1000, 1000, 226.969
1000, 1000, 232.758
1000, 1000, 231.607
1000, 1000, 226.646
1000, 1000, 226.707
1000, 1000, 226.137
1000, 1000, 227.574
1000, 1000, 230.041
